<svg width="20" height="13" viewBox="0 0 20 13" fill="none" xmlns="http://www.w3.org/2000/svg">
<path fill-rule="evenodd" clip-rule="evenodd" d="M1.22066 0L10 6.14554L18.7793 0H1.22066ZM0.00956178 0.861152C0.00325827 0.906532 0 0.952885 0 1V12C0 12.5523 0.447715 13 1 13H19C19.5523 13 20 12.5523 20 12V1C20 0.952886 19.9967 0.906532 19.9904 0.861153L10.4014 7.57346L10 7.85446L9.59858 7.57346L0.00956178 0.861152Z" fill="#28477C"/>
</svg>
