<svg width="11" height="10" viewBox="0 0 11 10" fill="none" xmlns="http://www.w3.org/2000/svg">
<path d="M1.60025 5H9.62832" stroke="#28477C" stroke-width="2" stroke-linecap="square"/>
<path d="M5.6142 9L5.6142 1" stroke="#28477C" stroke-width="2" stroke-linecap="square"/>
</svg>
